{
  "links": [
    {
      "rel": "first",
      "href": "http://devconciliationapi.us-east-1.elasticbeanstalk.com/financials/details?page=0&size=20"
    },
    {
      "rel": "self",
      "href": "http://devconciliationapi.us-east-1.elasticbeanstalk.com/financials/details"
    },
    {
      "rel": "next",
      "href": "http://devconciliationapi.us-east-1.elasticbeanstalk.com/financials/details?page=1&size=20"
    },
    {
      "rel": "last",
      "href": "http://devconciliationapi.us-east-1.elasticbeanstalk.com/financials/details?page=2&size=20"
    }
  ],
  "content": [
    {
      "date": "2016-10-12T20:49:57",
      "forethoughtDate": null,
      "forethoughtExpectedAmount": null,
      "forethoughtFee": null,
      "forethoughtAmount": null,
      "forethoughtRoNumber": null,
      "transactionNsu": "000503749984",
      "transactionGross": 26,
      "transactionNet": 25.43,
      "transactionPvCode": "006612032",
      "transactionTid": null,
      "installmentNumber": 1,
      "installment": 1,
      "installmentPayedAmount": 25.43,
      "adjustAmount": null,
      "adjustDescription": null,
      "adjustRoNumber": null,
      "adjustCancellationAmount": null,
      "adjustNsu": null,
      "adjustCardNumber": null,
      "adjustAuthorization": null,
      "adjustType": null,
      "links": []
    },
    {
      "date": "2016-10-12T20:57:39",
      "forethoughtDate": null,
      "forethoughtExpectedAmount": null,
      "forethoughtFee": null,
      "forethoughtAmount": null,
      "forethoughtRoNumber": null,
      "transactionNsu": "000503769406",
      "transactionGross": 25,
      "transactionNet": 24.45,
      "transactionPvCode": "006612032",
      "transactionTid": null,
      "installmentNumber": 1,
      "installment": 1,
      "installmentPayedAmount": 24.45,
      "adjustAmount": null,
      "adjustDescription": null,
      "adjustRoNumber": null,
      "adjustCancellationAmount": null,
      "adjustNsu": null,
      "adjustCardNumber": null,
      "adjustAuthorization": null,
      "adjustType": null,
      "links": []
    },
    {
      "date": "2016-10-12T21:04:13",
      "forethoughtDate": null,
      "forethoughtExpectedAmount": null,
      "forethoughtFee": null,
      "forethoughtAmount": null,
      "forethoughtRoNumber": null,
      "transactionNsu": "000503785354",
      "transactionGross": 11.81,
      "transactionNet": 11.55,
      "transactionPvCode": "006612032",
      "transactionTid": null,
      "installmentNumber": 1,
      "installment": 1,
      "installmentPayedAmount": 11.55,
      "adjustAmount": null,
      "adjustDescription": null,
      "adjustRoNumber": null,
      "adjustCancellationAmount": null,
      "adjustNsu": null,
      "adjustCardNumber": null,
      "adjustAuthorization": null,
      "adjustType": null,
      "links": []
    },
    {
      "date": "2016-10-12T21:20:56",
      "forethoughtDate": null,
      "forethoughtExpectedAmount": null,
      "forethoughtFee": null,
      "forethoughtAmount": null,
      "forethoughtRoNumber": null,
      "transactionNsu": "000503821494",
      "transactionGross": 28.29,
      "transactionNet": 27.67,
      "transactionPvCode": "006612032",
      "transactionTid": null,
      "installmentNumber": 1,
      "installment": 1,
      "installmentPayedAmount": 27.67,
      "adjustAmount": null,
      "adjustDescription": null,
      "adjustRoNumber": null,
      "adjustCancellationAmount": null,
      "adjustNsu": null,
      "adjustCardNumber": null,
      "adjustAuthorization": null,
      "adjustType": null,
      "links": []
    },
    {
      "date": "2016-10-12T21:52:16",
      "forethoughtDate": null,
      "forethoughtExpectedAmount": null,
      "forethoughtFee": null,
      "forethoughtAmount": null,
      "forethoughtRoNumber": null,
      "transactionNsu": "000503880118",
      "transactionGross": 27,
      "transactionNet": 26.41,
      "transactionPvCode": "006612032",
      "transactionTid": null,
      "installmentNumber": 1,
      "installment": 1,
      "installmentPayedAmount": 26.41,
      "adjustAmount": null,
      "adjustDescription": null,
      "adjustRoNumber": null,
      "adjustCancellationAmount": null,
      "adjustNsu": null,
      "adjustCardNumber": null,
      "adjustAuthorization": null,
      "adjustType": null,
      "links": []
    },
    {
      "date": "2016-10-12T23:37:27",
      "forethoughtDate": null,
      "forethoughtExpectedAmount": null,
      "forethoughtFee": null,
      "forethoughtAmount": null,
      "forethoughtRoNumber": null,
      "transactionNsu": "000503985028",
      "transactionGross": 20,
      "transactionNet": 19.56,
      "transactionPvCode": "006612032",
      "transactionTid": null,
      "installmentNumber": 1,
      "installment": 1,
      "installmentPayedAmount": 19.56,
      "adjustAmount": null,
      "adjustDescription": null,
      "adjustRoNumber": null,
      "adjustCancellationAmount": null,
      "adjustNsu": null,
      "adjustCardNumber": null,
      "adjustAuthorization": null,
      "adjustType": null,
      "links": []
    },
    {
      "date": "2016-10-12T23:38:43",
      "forethoughtDate": null,
      "forethoughtExpectedAmount": null,
      "forethoughtFee": null,
      "forethoughtAmount": null,
      "forethoughtRoNumber": null,
      "transactionNsu": "000503985764",
      "transactionGross": 15,
      "transactionNet": 14.67,
      "transactionPvCode": "006612032",
      "transactionTid": null,
      "installmentNumber": 1,
      "installment": 1,
      "installmentPayedAmount": 14.67,
      "adjustAmount": null,
      "adjustDescription": null,
      "adjustRoNumber": null,
      "adjustCancellationAmount": null,
      "adjustNsu": null,
      "adjustCardNumber": null,
      "adjustAuthorization": null,
      "adjustType": null,
      "links": []
    },
    {
      "date": "2016-10-12T23:42:27",
      "forethoughtDate": null,
      "forethoughtExpectedAmount": null,
      "forethoughtFee": null,
      "forethoughtAmount": null,
      "forethoughtRoNumber": null,
      "transactionNsu": "000746811416",
      "transactionGross": 20,
      "transactionNet": 19.56,
      "transactionPvCode": "006612032",
      "transactionTid": null,
      "installmentNumber": 1,
      "installment": 1,
      "installmentPayedAmount": 19.56,
      "adjustAmount": null,
      "adjustDescription": null,
      "adjustRoNumber": null,
      "adjustCancellationAmount": null,
      "adjustNsu": null,
      "adjustCardNumber": null,
      "adjustAuthorization": null,
      "adjustType": null,
      "links": []
    },
    {
      "date": "2016-10-12T22:29:00",
      "forethoughtDate": null,
      "forethoughtExpectedAmount": null,
      "forethoughtFee": null,
      "forethoughtAmount": null,
      "forethoughtRoNumber": null,
      "transactionNsu": "000746863324",
      "transactionGross": 17.27,
      "transactionNet": 16.89,
      "transactionPvCode": "006612032",
      "transactionTid": null,
      "installmentNumber": 1,
      "installment": 1,
      "installmentPayedAmount": 16.89,
      "adjustAmount": null,
      "adjustDescription": null,
      "adjustRoNumber": null,
      "adjustCancellationAmount": null,
      "adjustNsu": null,
      "adjustCardNumber": null,
      "adjustAuthorization": null,
      "adjustType": null,
      "links": []
    },
    {
      "date": "2016-10-12T22:04:20",
      "forethoughtDate": null,
      "forethoughtExpectedAmount": null,
      "forethoughtFee": null,
      "forethoughtAmount": null,
      "forethoughtRoNumber": null,
      "transactionNsu": "000746890928",
      "transactionGross": 149.03,
      "transactionNet": 145.75,
      "transactionPvCode": "006612032",
      "transactionTid": null,
      "installmentNumber": 1,
      "installment": 1,
      "installmentPayedAmount": 145.75,
      "adjustAmount": null,
      "adjustDescription": null,
      "adjustRoNumber": null,
      "adjustCancellationAmount": null,
      "adjustNsu": null,
      "adjustCardNumber": null,
      "adjustAuthorization": null,
      "adjustType": null,
      "links": []
    },
    {
      "date": "2016-10-12T20:46:02",
      "forethoughtDate": null,
      "forethoughtExpectedAmount": null,
      "forethoughtFee": null,
      "forethoughtAmount": null,
      "forethoughtRoNumber": null,
      "transactionNsu": "000747027608",
      "transactionGross": 3.94,
      "transactionNet": 3.85,
      "transactionPvCode": "006612032",
      "transactionTid": null,
      "installmentNumber": 1,
      "installment": 1,
      "installmentPayedAmount": 3.85,
      "adjustAmount": null,
      "adjustDescription": null,
      "adjustRoNumber": null,
      "adjustCancellationAmount": null,
      "adjustNsu": null,
      "adjustCardNumber": null,
      "adjustAuthorization": null,
      "adjustType": null,
      "links": []
    },
    {
      "date": "2016-10-12T19:38:35",
      "forethoughtDate": null,
      "forethoughtExpectedAmount": null,
      "forethoughtFee": null,
      "forethoughtAmount": null,
      "forethoughtRoNumber": null,
      "transactionNsu": "000747181986",
      "transactionGross": 11,
      "transactionNet": 10.76,
      "transactionPvCode": "006612032",
      "transactionTid": null,
      "installmentNumber": 1,
      "installment": 1,
      "installmentPayedAmount": 10.76,
      "adjustAmount": null,
      "adjustDescription": null,
      "adjustRoNumber": null,
      "adjustCancellationAmount": null,
      "adjustNsu": null,
      "adjustCardNumber": null,
      "adjustAuthorization": null,
      "adjustType": null,
      "links": []
    },
    {
      "date": "2016-10-12T19:12:24",
      "forethoughtDate": null,
      "forethoughtExpectedAmount": null,
      "forethoughtFee": null,
      "forethoughtAmount": null,
      "forethoughtRoNumber": null,
      "transactionNsu": "000747250020",
      "transactionGross": 50,
      "transactionNet": 48.9,
      "transactionPvCode": "006612032",
      "transactionTid": null,
      "installmentNumber": 1,
      "installment": 1,
      "installmentPayedAmount": 48.9,
      "adjustAmount": null,
      "adjustDescription": null,
      "adjustRoNumber": null,
      "adjustCancellationAmount": null,
      "adjustNsu": null,
      "adjustCardNumber": null,
      "adjustAuthorization": null,
      "adjustType": null,
      "links": []
    },
    {
      "date": "2016-10-12T16:52:47",
      "forethoughtDate": null,
      "forethoughtExpectedAmount": null,
      "forethoughtFee": null,
      "forethoughtAmount": null,
      "forethoughtRoNumber": null,
      "transactionNsu": "000747638652",
      "transactionGross": 50,
      "transactionNet": 48.9,
      "transactionPvCode": "006612032",
      "transactionTid": null,
      "installmentNumber": 1,
      "installment": 1,
      "installmentPayedAmount": 48.9,
      "adjustAmount": null,
      "adjustDescription": null,
      "adjustRoNumber": null,
      "adjustCancellationAmount": null,
      "adjustNsu": null,
      "adjustCardNumber": null,
      "adjustAuthorization": null,
      "adjustType": null,
      "links": []
    },
    {
      "date": "2016-10-12T16:35:45",
      "forethoughtDate": null,
      "forethoughtExpectedAmount": null,
      "forethoughtFee": null,
      "forethoughtAmount": null,
      "forethoughtRoNumber": null,
      "transactionNsu": "000747686168",
      "transactionGross": 100,
      "transactionNet": 97.8,
      "transactionPvCode": "006612032",
      "transactionTid": null,
      "installmentNumber": 1,
      "installment": 1,
      "installmentPayedAmount": 97.8,
      "adjustAmount": null,
      "adjustDescription": null,
      "adjustRoNumber": null,
      "adjustCancellationAmount": null,
      "adjustNsu": null,
      "adjustCardNumber": null,
      "adjustAuthorization": null,
      "adjustType": null,
      "links": []
    },
    {
      "date": "2016-10-12T15:49:50",
      "forethoughtDate": null,
      "forethoughtExpectedAmount": null,
      "forethoughtFee": null,
      "forethoughtAmount": null,
      "forethoughtRoNumber": null,
      "transactionNsu": "000747830256",
      "transactionGross": 24.6,
      "transactionNet": 24.06,
      "transactionPvCode": "006612032",
      "transactionTid": null,
      "installmentNumber": 1,
      "installment": 1,
      "installmentPayedAmount": 24.06,
      "adjustAmount": null,
      "adjustDescription": null,
      "adjustRoNumber": null,
      "adjustCancellationAmount": null,
      "adjustNsu": null,
      "adjustCardNumber": null,
      "adjustAuthorization": null,
      "adjustType": null,
      "links": []
    },
    {
      "date": "2016-10-12T15:33:10",
      "forethoughtDate": null,
      "forethoughtExpectedAmount": null,
      "forethoughtFee": null,
      "forethoughtAmount": null,
      "forethoughtRoNumber": null,
      "transactionNsu": "000747881782",
      "transactionGross": 20.38,
      "transactionNet": 19.93,
      "transactionPvCode": "006612032",
      "transactionTid": null,
      "installmentNumber": 1,
      "installment": 1,
      "installmentPayedAmount": 19.93,
      "adjustAmount": null,
      "adjustDescription": null,
      "adjustRoNumber": null,
      "adjustCancellationAmount": null,
      "adjustNsu": null,
      "adjustCardNumber": null,
      "adjustAuthorization": null,
      "adjustType": null,
      "links": []
    },
    {
      "date": "2016-10-12T15:32:39",
      "forethoughtDate": null,
      "forethoughtExpectedAmount": null,
      "forethoughtFee": null,
      "forethoughtAmount": null,
      "forethoughtRoNumber": null,
      "transactionNsu": "000747883478",
      "transactionGross": 100,
      "transactionNet": 97.8,
      "transactionPvCode": "006612032",
      "transactionTid": null,
      "installmentNumber": 1,
      "installment": 1,
      "installmentPayedAmount": 97.8,
      "adjustAmount": null,
      "adjustDescription": null,
      "adjustRoNumber": null,
      "adjustCancellationAmount": null,
      "adjustNsu": null,
      "adjustCardNumber": null,
      "adjustAuthorization": null,
      "adjustType": null,
      "links": []
    },
    {
      "date": "2016-10-12T15:22:54",
      "forethoughtDate": null,
      "forethoughtExpectedAmount": null,
      "forethoughtFee": null,
      "forethoughtAmount": null,
      "forethoughtRoNumber": null,
      "transactionNsu": "000747910854",
      "transactionGross": 18.05,
      "transactionNet": 17.65,
      "transactionPvCode": "006612032",
      "transactionTid": null,
      "installmentNumber": 1,
      "installment": 1,
      "installmentPayedAmount": 17.65,
      "adjustAmount": null,
      "adjustDescription": null,
      "adjustRoNumber": null,
      "adjustCancellationAmount": null,
      "adjustNsu": null,
      "adjustCardNumber": null,
      "adjustAuthorization": null,
      "adjustType": null,
      "links": []
    },
    {
      "date": "2016-10-12T13:51:35",
      "forethoughtDate": null,
      "forethoughtExpectedAmount": null,
      "forethoughtFee": null,
      "forethoughtAmount": null,
      "forethoughtRoNumber": null,
      "transactionNsu": "000748211392",
      "transactionGross": 24.74,
      "transactionNet": 24.2,
      "transactionPvCode": "006612032",
      "transactionTid": null,
      "installmentNumber": 1,
      "installment": 1,
      "installmentPayedAmount": 24.2,
      "adjustAmount": null,
      "adjustDescription": null,
      "adjustRoNumber": null,
      "adjustCancellationAmount": null,
      "adjustNsu": null,
      "adjustCardNumber": null,
      "adjustAuthorization": null,
      "adjustType": null,
      "links": []
    }
  ],
  "page": {
    "size": 20,
    "totalElements": 60,
    "totalPages": 3,
    "number": 0
  }
}